{
    "name": "Tests",
    "rootNamespace": "",
    "references": [
		"Unity.PerformanceTesting",
        "UnityEngine.TestRunner",
        "UnityEditor.TestRunner"
    ],
    "includePlatforms": [
        "Editor",
        "WindowsStandalone64"
    ],
    "excludePlatforms": [],
    "allowUnsafeCode": false,
    "overrideReferences": true,
    "precompiledReferences": [
        "nunit.framework.dll"
    ],
    "autoReferenced": true,
    "defineConstraints": [
        "UNITY_INCLUDE_TESTS"
    ],
    "versionDefines": [],
    "noEngineReferences": false
}